<?xml version="1.0" encoding="iso-8859-1"?>
<!-- Generator: Adobe Illustrator 19.0.0, SVG Export Plug-In . SVG Version: 6.00 Build 0)  -->
<svg xmlns="http://www.w3.org/2000/svg" xmlns:xlink="http://www.w3.org/1999/xlink" version="1.1" id="Capa_1" x="0px" y="0px" viewBox="0 0 384 384" style="enable-background:new 0 0 384 384;" xml:space="preserve" width="512px" height="512px">
		<g>
			<rect x="0" y="267.333" width="384" height="48" fill="#ef6e05"/>
			<rect x="0" y="170.667" width="304" height="48" fill="#ef6e05"/>
			<rect x="0" y="74" width="384" height="48" fill="#ef6e05"/>
		</g>
</svg>
